{
    "extension_description": {
        "message": "Дозволяє легко змінювати User-Agent вашого Браузера"
    },
    "options_entries_caption": {
        "message": "Список User-Agent варіацій"
    },
    "popup_item_options": {
        "message": "Налаштування…"
    },
    "icon_title_enabled": {
        "message": "ввімкнено"
    },
    "icon_title_disabled": {
        "message": "вимкнено"
    },
    "options_entries_reset": {
        "message": "Відновити стандартний список",
        "description": "Options page link for loading the entries defaults"
    },
    "options_entries_reset_undo_text": {
        "message": "Стандартний список відновлено",
        "description": "Text of popup that is shown after the reset link has been clicked"
    },
    "options_entries_reset_undo_button": {
        "message": "Відновити користувацький список",
        "description": "Label of button for undoing a reset (displayed below the text that asserts that the options have just been reset)"
    },
    "options_entries_switch_text": {
        "message": "Перемкнути в текстовий режим",
        "description": "Options page link for switching from table to text mode"
    },
    "options_entries_switch_table": {
        "message": "Перемкнути в режим таблиці",
        "description": "Options page link for switching from text to table mode"
    },
    "options_entries_heading_label": {
        "message": "Назва",
        "description": "Options page table editor heading for the column with user-facing User-Agent-String labels"
    },
    "options_entries_heading_string": {
        "message": "Рядок",
        "description": "Options page table editor heading for the column with the actual server-reported User-Agent-Strings"
    },
    "popup_item_default": {
        "message": "Вимкнено",
        "description": "The label of the menu item that disables the User-Agent-Overrider and lets the browser send its default User-Agent-String"
    },
    "options_entries_heading_category": {
        "message": "Категорія",
        "description": "Options page table editor heading for the column with general category of the given User-Agent-String"
    },
    "useragent_category_desktop": {
        "message": "Настільні комп'ютери",
        "description": "Default category label for browsers on desktop devices"
    },
    "useragent_category_mobile": {
        "message": "Мобільні пристрої",
        "description": "Default category label for browsers on mobile devices"
    },
    "useragent_category_bot": {
        "message": "Пошукові боти",
        "description": "Default category label for search engine bots"
    },
    "useragent_category_other": {
        "message": "Інше",
        "description": "Default category label for unclassified client software"
    },
    "icon_title_random": {
        "message": "режим випадкового вибору",
        "description": "Text displayed in the browser action icon tooltip when the User-Agent header is choosen at random"
    },
    "popup_item_random": {
        "message": "Випадковий вибір",
        "description": "The label of the menu item for enabling time-based User-Agent randomization"
    },
    "popup_item_random_categories": {
        "message": "Категорії:",
        "description": "The section header of the categories selection of random selection mode"
    },
    "popup_item_random_interval_mode_restart": {
        "message": "Тільки під час старту Браузера",
        "description": "The label of the menu item for enabling the time-based User-Agent randomization only on extension and browser startup"
    },
    "popup_item_random_interval_mode_timed": {
        "message": "Кожні:",
        "description": "The label of the menu item for enabling the time-based User-Agent randomization at regular intervals"
    },
    "popup_item_random_interval_unit_minutes": {
        "message": "хв",
        "description": "A User-Agent randomization time interval"
    },
    "popup_item_random_interval_unit_hours": {
        "message": "год",
        "description": "A User-Agent randomization time interval"
    },
    "popup_item_random_interval_unit_days": {
        "message": "д",
        "description": "A User-Agent randomization time interval"
    },
    "option_badge_text": {
        "message": "Показати абревіатуру \"User-Agent\" на піктограмі?",
        "description": "Text of checkbox option to show/hide the two to four letter abbreviations displayed ontop of the browser action icon"
    },
    "option_random_jitter": {
        "message": "Варіація випадкового режиму (0-100)",
        "description": "Text of numeric option (0-100) for setting by how many per-cent the random-interval value should (on avarage) be varied"
    },
    "popup_item_override_tpl": {
        "message": "“$HOSTNAME$”",
        "description": "Label of an individual selectable override domain",
        "placeholders": {
            "hostname": {
                "content": "$1"
            }
        }
    },
    "icon_title_override_enabled": {
        "message": "Увімкнуто, перевизначення",
        "description": "Text displayed in the browser action icon tooltip when request processing is being done because of an override being set"
    },
    "icon_title_override_disabled": {
        "message": "Відключено від перевизначення",
        "description": "Text displayed in the browser action icon tooltip when no request processing is being done because of an override being set"
    },
    "popup_item_override": {
        "message": "Перевизначити для домену",
        "description": "Label of the checkbox that can be used to switch from setting the global User-Agent string to a per-site value"
    },
    "options_entries_heading_enabled": {
        "message": "Увімкнено",
        "description": "Options page table editor heading for the column allowing to enabled or disable items"
    },
    "option_popup_override_size": {
        "message": "Примусове відображення усталеного меню",
        "description": "Text of checkbox option to force the extension popup to a static/larger size than it would normally be according to the browser defaults (note that this also has a description attached)"
    },
    "option_popup_override_size_description": {
        "message": "Увімкніть, якщо спливаюче вікно відображається занадто маленьким на вашому пристрої",
        "description": "Description text of checkbox option to force the extension popup to a static/larger size than it would normally be according to the browser defaults"
    }
}
