{
    "popup_item_default": {
        "message": "ডিফল্ট",
        "description": "The label of the menu item that disables the User-Agent overrider and lets the browser send its default User-Agent string"
    },
    "popup_item_random_interval_unit_days": {
        "message": "দিনে",
        "description": "A User-Agent randomization time interval"
    },
    "popup_item_random_interval_unit_hours": {
        "message": "ঘণ্টায়",
        "description": "A User-Agent randomization time interval"
    },
    "popup_item_random_interval_unit_minutes": {
        "message": "মিনিটে",
        "description": "A User-Agent randomization time interval"
    },
    "popup_item_random_interval_mode_timed": {
        "message": "প্রতি:",
        "description": "The label of the menu item for enabling the time-based User-Agent randomization at regular intervals"
    },
    "popup_item_random_interval_mode_restart": {
        "message": "শুধুমাত্র স্টার্টআপে",
        "description": "The label of the menu item for enabling the time-based User-Agent randomization only on extension and browser startup"
    },
    "popup_item_random_categories": {
        "message": "বিভাগ:",
        "description": "The section header of the categories selection of random selection mode"
    },
    "popup_item_random": {
        "message": "র‍্যান্ডম মোড সক্ষম করুন",
        "description": "The label of the menu item for enabling time-based User-Agent randomization"
    },
    "popup_item_override_tpl": {
        "message": "“$HOSTNAME$”",
        "description": "Label of an individual selectable override domain",
        "placeholders": {
            "hostname": {
                "content": "$1",
                "example": "https://www.example.net"
            }
        }
    },
    "popup_item_override": {
        "message": "ডোমেনের জন্য ওভাররাইড করুন",
        "description": "Label of the checkbox that can be used to switch from setting the global User-Agent string to a per-site value"
    },
    "popup_item_options": {
        "message": "পছন্দ…",
        "description": "The label of the menu item for opening the extension's preference page"
    },
    "icon_title_override_disabled": {
        "message": "ওভাররাইড দ্বারা নিষ্ক্রিয়",
        "description": "Text displayed in the browser action icon tooltip when no request processing is being done because of an override being set"
    },
    "icon_title_override_enabled": {
        "message": "ওভাররাইড দ্বারা সক্রিয়",
        "description": "Text displayed in the browser action icon tooltip when request processing is being done because of an override being set"
    },
    "icon_title_disabled": {
        "message": "নিষ্ক্রিয়",
        "description": "Text displayed in the browser action icon tooltip when no request processing is being done because of the global setting"
    },
    "icon_title_enabled": {
        "message": "সক্রিয়",
        "description": "Text displayed in the browser action icon tooltip when request processing is being done because of the global setting"
    },
    "icon_title_random": {
        "message": "র‍্যান্ডম মোড",
        "description": "Text displayed in the browser action icon tooltip when the User-Agent header is choosen at random"
    },
    "useragent_category_other": {
        "message": "অন্যান্য",
        "description": "Default category label for unclassified client software"
    },
    "useragent_category_bot": {
        "message": "বট",
        "description": "Default category label for search engine bots"
    },
    "useragent_category_mobile": {
        "message": "মোবাইল",
        "description": "Default category label for browsers on mobile devices"
    },
    "useragent_category_desktop": {
        "message": "ডেস্কটপ",
        "description": "Default category label for browsers on desktop devices"
    },
    "options_entries_heading_string": {
        "message": "স্ট্রিং",
        "description": "Options page table editor heading for the column with the actual server-reported User-Agent-Strings"
    },
    "options_entries_heading_category": {
        "message": "বিভাগ",
        "description": "Options page table editor heading for the column with general category of the given User-Agent-String"
    },
    "options_entries_heading_label": {
        "message": "লেবেল",
        "description": "Options page table editor heading for the column with user-facing User-Agent-String labels"
    },
    "options_entries_heading_enabled": {
        "message": "সক্রিয়",
        "description": "Options page table editor heading for the column allowing to enabled or disable items"
    },
    "options_entries_switch_table": {
        "message": "টেবিল মোডে সুইচ করুন",
        "description": "Options page link for switching from text to table mode"
    },
    "options_entries_switch_text": {
        "message": "টেক্সট মোডে সুইচ করুন",
        "description": "Options page link for switching from table to text mode"
    },
    "options_entries_reset_undo_button": {
        "message": "পূর্বাবস্থা ফিরে যান",
        "description": "Label of button for undoing a reset (displayed below the text that asserts that the options have just been reset)"
    },
    "options_entries_reset_undo_text": {
        "message": "ডিফল্ট মান পুনরুদ্ধার করা হয়েছে",
        "description": "Text of popup that is shown after the reset link has been clicked"
    },
    "options_entries_reset": {
        "message": "ডিফল্ট মানসমূহে রিসেট করুন",
        "description": "Options page link for loading the entries defaults"
    },
    "options_entries_caption": {
        "message": "ব্যবহারকারী-এজেন্ট এন্ট্রি",
        "description": "Header text of the entries editor in the extension options"
    },
    "option_random_jitter": {
        "message": "র‍্যান্ডম মোড বিভিন্নতা",
        "description": "Text of numeric option (0-100) for setting by how many per-cent the random-interval value should (on avarage) be varied"
    },
    "option_popup_override_size_description": {
        "message": "আপনার ডিভাইসে পপআপ খুব ছোট রেন্ডার করা হলে সক্ষম করুন",
        "description": "Description text of checkbox option to force the extension popup to a static/larger size than it would normally be according to the browser defaults"
    },
    "option_popup_override_size": {
        "message": "ডিফল্ট পপআপ / মেনু আকার চাপিয়ে দিন",
        "description": "Text of checkbox option to force the extension popup to a static/larger size than it would normally be according to the browser defaults (note that this also has a description attached)"
    },
    "option_badge_text": {
        "message": "আইকন-এ ব্যাজ লেখা হিসেবে ইউজার-এজেন্ট দেখান?",
        "description": "Text of checkbox option to show/hide the two to four letter abbreviations displayed ontop of the browser action icon"
    },
    "extension_description": {
        "message": "সহজেই ব্রাউজারের ব্যবহারকারী-এজেন্ট স্ট্রিং ওভাররাইড করুন",
        "description": "Extension description"
    }
}
